<?xml version="1.0" encoding="UTF-8" standalone="no"?>
<!-- Created with Inkscape (http://www.inkscape.org/) -->

<svg
   xmlns:dc="http://purl.org/dc/elements/1.1/"
   xmlns:cc="http://creativecommons.org/ns#"
   xmlns:rdf="http://www.w3.org/1999/02/22-rdf-syntax-ns#"
   xmlns:svg="http://www.w3.org/2000/svg"
   xmlns="http://www.w3.org/2000/svg"
   xmlns:sodipodi="http://sodipodi.sourceforge.net/DTD/sodipodi-0.dtd"
   xmlns:inkscape="http://www.inkscape.org/namespaces/inkscape"
   width="11in"
   height="17in"
   viewBox="0 0 279.4 431.8"
   version="1.1"
   id="svg3098"
   inkscape:version="0.92.4 (5da689c313, 2019-01-14)"
   sodipodi:docname="W5_FM.svg">
  <defs
     id="defs3092" />
  <sodipodi:namedview
     id="base"
     pagecolor="#ffffff"
     bordercolor="#666666"
     borderopacity="1.0"
     inkscape:pageopacity="0.0"
     inkscape:pageshadow="2"
     inkscape:zoom="0.35"
     inkscape:cx="910.46464"
     inkscape:cy="830.31828"
     inkscape:document-units="mm"
     inkscape:current-layer="layer1"
     showgrid="false"
     units="in"
     inkscape:window-width="1920"
     inkscape:window-height="1001"
     inkscape:window-x="-9"
     inkscape:window-y="-9"
     inkscape:window-maximized="1" />
  <metadata
     id="metadata3095">
    <rdf:RDF>
      <cc:Work
         rdf:about="">
        <dc:format>image/svg+xml</dc:format>
        <dc:type
           rdf:resource="http://purl.org/dc/dcmitype/StillImage" />
        <dc:title></dc:title>
      </cc:Work>
    </rdf:RDF>
  </metadata>
  <g
     inkscape:label="Layer 1"
     inkscape:groupmode="layer"
     id="layer1"
     transform="translate(0,134.8)"
     style="opacity:0.975">
    <rect
       style="opacity:0.744;fill:#006955;fill-opacity:0.26666667;stroke:#580517;stroke-width:0.57999998;stroke-linecap:round;stroke-linejoin:bevel;stroke-miterlimit:4;stroke-dasharray:none;stroke-dashoffset:0;stroke-opacity:1;paint-order:stroke markers fill"
       id="rect3100"
       width="196.54761"
       height="304.6488"
       x="42.333332"
       y="-90.803574" />
    <rect
       style="opacity:0.744;fill:#006955;fill-opacity:0.26666667;stroke:#580517;stroke-width:0.57999998;stroke-linecap:round;stroke-linejoin:bevel;stroke-miterlimit:4;stroke-dasharray:none;stroke-dashoffset:0;stroke-opacity:1;paint-order:stroke markers fill"
       id="rect3102"
       width="195.79164"
       height="63.499992"
       x="43.089287"
       y="150.34521" />
    <flowRoot
       xml:space="preserve"
       id="flowRoot3104"
       style="font-style:normal;font-weight:normal;font-size:42.66666794px;line-height:1.25;font-family:sans-serif;letter-spacing:0px;word-spacing:0px;fill:#000000;fill-opacity:1;stroke:none"
       transform="matrix(0.26458333,0,0,0.26458333,21.166667,-133.2881)"><flowRegion
         id="flowRegion3106"
         style="font-size:42.66666794px"><rect
           id="rect3108"
           width="465.71429"
           height="97.14286"
           x="305.71429"
           y="1163.4286"
           style="font-size:42.66666794px" /></flowRegion><flowPara
         id="flowPara3110">BOOT FLASH</flowPara></flowRoot>    <text
       xml:space="preserve"
       style="font-style:normal;font-weight:normal;font-size:3.52777767px;line-height:1.25;font-family:sans-serif;letter-spacing:0px;word-spacing:0px;fill:#000000;fill-opacity:1;stroke:none;stroke-width:0.26458332"
       x="149.67857"
       y="172.26785"
       id="text3114"><tspan
         sodipodi:role="line"
         id="tspan3112"
         x="149.67857"
         y="175.38911"
         style="stroke-width:0.26458332" /></text>
    <flowRoot
       xml:space="preserve"
       id="flowRoot3116"
       style="font-style:normal;font-weight:normal;font-size:42.66666794px;line-height:1.25;font-family:sans-serif;letter-spacing:0px;word-spacing:0px;fill:#000000;fill-opacity:1;stroke:none"
       transform="matrix(0.26458333,0,0,0.26458333,-8.3154762,-131.02024)"><flowRegion
         id="flowRegion3118"
         style="font-size:42.66666794px"><rect
           id="rect3120"
           width="471.42859"
           height="211.42856"
           x="340"
           y="614.85712"
           style="font-size:42.66666794px" /></flowRegion><flowPara
         id="flowPara3122">APPLICATION FLASH</flowPara></flowRoot>    <path
       style="fill:none;stroke:#000000;stroke-width:0.26458332px;stroke-linecap:butt;stroke-linejoin:miter;stroke-opacity:1"
       d="m 211.66666,181.33927 48.38096,0.75597 v 81.64285 l -130.77976,0.75596"
       id="path3135"
       inkscape:connector-curvature="0" />
    <path
       style="fill:none;stroke:#000000;stroke-width:0.26458332px;stroke-linecap:butt;stroke-linejoin:miter;stroke-opacity:1"
       d="m 129.26786,264.49405 -21.92262,-0.75596"
       id="path3137"
       inkscape:connector-curvature="0" />
  </g>
</svg>
